…
3)  As many interest rate lists as per the currencies in the swap
    portfolio. The list is made of a string with the code of the
    currency and a with a tibble with the discounting factor curve with
    two columns: Dates and Discount Factors (df). Here is an example of
    interest rate list:

<!-- end list -->

``` r
SwapPricer::EUR.curves
#> $currency
#> [1] "EUR"
#> 
#> $discount
#> # A tibble: 26 x 2
#>    Date          df
#>    <date>     <dbl>
#>  1 2019-04-15  1   
#>  2 2019-04-23  1.00
#>  3 2019-05-16  1.00
#>  4 2019-07-16  1.00
#>  5 2019-10-16  1.00
#>  6 2020-04-16  1.00
#>  7 2020-10-16  1.00
#>  8 2021-04-16  1.00
#>  9 2022-04-19  1.00
#> 10 2023-04-17  1.00
#> # … with 16 more rows
```
…
